SYSTEMC/01_SystemCPrimer/bin/03_TestBench/pulse.vcd
$date
     Jul 18, 2021       12:21:03
$end

$version
 SystemC 2.3.3-Accellera --- Jul  7 2021 01:38:11
$end

$timescale
     1 ps
$end

$scope module SystemC $end
$var wire    1  aaaaa  clock       $end
$var wire    1  aaaab  pulse_out       $end
$upscope $end
$enddefinitions  $end

$comment
All initial values are dumped below at time 0 sec = 0 timescale units.
$end

$dumpvars
1aaaaa
0aaaab
$end

#2000
1aaaab

#2500
0aaaaa

#3000
0aaaab

#5000
1aaaaa

#7000
1aaaab

#7500
0aaaaa

#8000
0aaaab

#10000
1aaaaa

#12000
1aaaab

#12500
0aaaaa

#13000
0aaaab

#15000
1aaaaa

#17000
1aaaab

#17500
0aaaaa

#18000
0aaaab

#20000
1aaaaa

#22000
1aaaab

#22500
0aaaaa

#23000
0aaaab

#25000
1aaaaa

#27000
1aaaab

#27500
0aaaaa

#28000
0aaaab

#30000
1aaaaa

#32000
1aaaab

#32500
0aaaaa

#33000
0aaaab

#35000
1aaaaa

#37000
1aaaab

#37500
0aaaaa

#38000
0aaaab

#40000
1aaaaa

#42000
1aaaab

#42500
0aaaaa

#43000
0aaaab

#45000
1aaaaa

#47000
1aaaab

#47500
0aaaaa

#48000
0aaaab

#50000
1aaaaa

#52000
1aaaab

#52500
0aaaaa

#53000
0aaaab

#55000
1aaaaa

#57000
1aaaab

#57500
0aaaaa

#58000
0aaaab

#60000
1aaaaa

#62000
1aaaab

#62500
0aaaaa

#63000
0aaaab

#65000
1aaaaa

#67000
1aaaab

#67500
0aaaaa

#68000
0aaaab

#70000
1aaaaa

#72000
1aaaab

#72500
0aaaaa

#73000
0aaaab

#75000
1aaaaa

#77000
1aaaab

#77500
0aaaaa

#78000
0aaaab

#80000
1aaaaa

#82000
1aaaab

#82500
0aaaaa

#83000
0aaaab

#85000
1aaaaa

#87000
1aaaab

#87500
0aaaaa

#88000
0aaaab

#90000
1aaaaa

#92000
1aaaab

#92500
0aaaaa

#93000
0aaaab

#95000
1aaaaa

#97000
1aaaab

#97500
0aaaaa

#98000
0aaaab

